{
  "name": "Ember-FW-acl",
  "url": "https://bitbucket.org/linformatics/addons/client-api/ember-fw-acl",
  "description": "Ember utilities to enable working with the FW Access Control addon.",
  "indexModule": "Introduction",
  "logo": "./assets/img/fw-logo.png",
  "primaryColor": "#7E3DB7",
  "options": {
    "paths": [
      "addon",
      "app"
    ],
    "exclude": "vendor",
    "outdir": "docs",
    "linkNatives": true,
    "quiet": true,
    "parseOnly": false,
    "lint": false,
    "themedir" : "yuidoc-ember-theme",
    "helpers" : ["yuidoc-ember-theme/helpers/bitbucket-helpers-override.js"]
  }
}
